…
# Inspecting R objects

``` r
sample_data_1b
```

```
## # A tibble: 2,677 × 22
##       id   psu weight strata      v012 v025  v149  v190  b4    b5      b19 m3a  
##    <dbl> <dbl>  <dbl> <chr>      <dbl> <chr> <chr> <chr> <chr> <chr> <dbl> <chr>
##  1     1  1427  1.25  south kal…    31 rural inco… poor… fema… yes      28 no   
##  2     2  1859  0.188 maluku ru…    24 rural inco… poor… fema… yes      27 no   
##  3     3   891  1.89  central j…    37 urban inco… midd… fema… yes      26 no   
##  4     4  1652  0.789 south sul…    26 rural inco… poor… male  yes      50 no   
##  5     5    20  0.359 aceh rural    37 rural comp… poor… male  yes      29 no   
##  6     6  1962  1.35  papua rur…    34 rural inco… poor… male  yes      19 no   
##  7     7  1618  0.782 south sul…    32 urban high… midd… fema… yes      59 no   
##  8     8  1063  2.36  east java…    35 rural inco… poor… male  yes       1 no   
##  9     9  1567  0.348 central s…    24 rural comp… rich… male  yes       4 no   
## 10    10   536  0.977 jakarta u…    31 urban high… rich… male  yes       6 no   
## # ℹ 2,667 more rows
## # ℹ 10 more variables: m3b <chr>, m3c <chr>, m3d <chr>, m3e <chr>, m3g <chr>,
## #   m3h <chr>, m3k <chr>, m3n <chr>, h7 <chr>, sba <dbl>
```
…
